^C:\USERS\ТС\DESKTOP\NEWVERSION\TASK 0 A\TASK 0 A\MAIN.CPP
C:\USERS\ТС\DESKTOP\NEWVERSION\TASK 0\TASK 0\DEBUG\VC140.PDB
C:\USERS\ТС\DESKTOP\NEWVERSION\TASK 0\TASK 0\DEBUG\VC140.IDB
C:\USERS\ТС\DESKTOP\NEWVERSION\TASK 0\TASK 0\DEBUG\MAIN.OBJ
