^C:\USERS\ТС\DESKTOP\NEWVERSION\LAB2\LAB2\RELEASE\MAIN.OBJ|C:\USERS\ТС\DESKTOP\NEWVERSION\LAB2\LAB2\RELEASE\TRIT.OBJ|C:\USERS\ТС\DESKTOP\NEWVERSION\LAB2\RELEASE\GOOGLETEST.LIB
C:\USERS\ТС\DESKTOP\NEWVERSION\LAB2\RELEASE\LAB2.EXE
C:\USERS\ТС\DESKTOP\NEWVERSION\LAB2\RELEASE\LAB2.IPDB
C:\USERS\ТС\DESKTOP\NEWVERSION\LAB2\RELEASE\LAB2.IOBJ
C:\USERS\ТС\DESKTOP\NEWVERSION\LAB2\RELEASE\LAB2.PDB
